---
http_interactions:
- request:
    method: get
    uri: https://mamot.fr/users/mtancoigne/following
    body:
      encoding: US-ASCII
      string: ''
    headers:
      Content-Type:
      - application/json
      Accept:
      - application/json
      User-Agent:
      - Faraday v2.14.0
  response:
    status:
      code: 200
      message: OK
    headers:
      date:
      - Mon, 24 Nov 2025 13:31:13 GMT
      content-type:
      - application/activity+json; charset=utf-8
      content-length:
      - '207'
      connection:
      - keep-alive
      server:
      - Mastodon
      x-frame-options:
      - DENY
      x-content-type-options:
      - nosniff
      x-xss-protection:
      - '0'
      referrer-policy:
      - same-origin
      vary:
      - Accept, Accept-Language, Cookie
      cache-control:
      - max-age=180, public
      etag:
      - W/"0e2e38d93bea4c09ef76ace80a37b6e6"
      content-security-policy:
      - 'base-uri ''none''; default-src ''none''; frame-ancestors ''none''; font-src
        ''self'' https://mamot.fr; img-src ''self'' data: blob: https://mamot.fr https://static.mamot.fr;
        media-src ''self'' data: https://mamot.fr https://static.mamot.fr; manifest-src
        ''self'' https://mamot.fr; form-action ''none''; child-src ''self'' blob:
        https://mamot.fr; worker-src ''self'' blob: https://mamot.fr; connect-src
        ''self'' data: blob: https://mamot.fr https://static.mamot.fr wss://mamot.fr;
        script-src ''self'' https://mamot.fr ''wasm-unsafe-eval''; frame-src ''self''
        https:; style-src ''self'' https://mamot.fr ''nonce-ejfO+1/QZNeZFLrpr2fXbw=='''
      x-request-id:
      - 99607200-4430-42f2-9d6f-76326b46069c
      x-runtime:
      - '0.016358'
      strict-transport-security:
      - max-age=63072000; includeSubDomains, max-age=15552000; preload
      x-cached:
      - EXPIRED
      alt-svc:
      - h2="mamoteqvcadrmfs6ryykna4wpxhtsuzbpt4z7lxnqvx3qtse5xmk2fqd.onion:443"; ma=86400;
        persist=1
    body:
      encoding: UTF-8
      string: '{"@context":"https://www.w3.org/ns/activitystreams","id":"https://mamot.fr/users/mtancoigne/following","type":"OrderedCollection","totalItems":19,"first":"https://mamot.fr/users/mtancoigne/following?page=1"}'
  recorded_at: Mon, 24 Nov 2025 13:31:13 GMT
- request:
    method: get
    uri: https://mamot.fr/users/mtancoigne/following?page=1
    body:
      encoding: US-ASCII
      string: ''
    headers:
      Content-Type:
      - application/json
      Accept:
      - application/json
      User-Agent:
      - Faraday v2.14.0
  response:
    status:
      code: 200
      message: OK
    headers:
      date:
      - Mon, 24 Nov 2025 13:31:13 GMT
      content-type:
      - application/activity+json; charset=utf-8
      content-length:
      - '782'
      connection:
      - keep-alive
      server:
      - Mastodon
      x-frame-options:
      - DENY
      x-content-type-options:
      - nosniff
      x-xss-protection:
      - '0'
      referrer-policy:
      - same-origin
      vary:
      - Accept, Accept-Language, Cookie
      cache-control:
      - max-age=0, public
      etag:
      - W/"66689983900b7c4141063e185be3f1aa"
      content-security-policy:
      - 'base-uri ''none''; default-src ''none''; frame-ancestors ''none''; font-src
        ''self'' https://mamot.fr; img-src ''self'' data: blob: https://mamot.fr https://static.mamot.fr;
        media-src ''self'' data: https://mamot.fr https://static.mamot.fr; manifest-src
        ''self'' https://mamot.fr; form-action ''none''; child-src ''self'' blob:
        https://mamot.fr; worker-src ''self'' blob: https://mamot.fr; connect-src
        ''self'' data: blob: https://mamot.fr https://static.mamot.fr wss://mamot.fr;
        script-src ''self'' https://mamot.fr ''wasm-unsafe-eval''; frame-src ''self''
        https:; style-src ''self'' https://mamot.fr ''nonce-aa9eLa4QhZx8awYq4IPIBw=='''
      x-request-id:
      - 5f733e92-d7d5-4b1d-8c4e-c23dc05fc5a8
      x-runtime:
      - '0.018737'
      strict-transport-security:
      - max-age=63072000; includeSubDomains, max-age=15552000; preload
      x-cached:
      - MISS
      alt-svc:
      - h2="mamoteqvcadrmfs6ryykna4wpxhtsuzbpt4z7lxnqvx3qtse5xmk2fqd.onion:443"; ma=86400;
        persist=1
    body:
      encoding: UTF-8
      string: '{"@context":"https://www.w3.org/ns/activitystreams","id":"https://mamot.fr/users/mtancoigne/following?page=1","type":"OrderedCollectionPage","totalItems":19,"next":"https://mamot.fr/users/mtancoigne/following?page=2","partOf":"https://mamot.fr/users/mtancoigne/following","orderedItems":["https://mastodon.me.uk/users/Floppy","https://floss.social/users/forgefed","https://mamot.fr/users/LaQuadrature","https://social.technoetic.com/users/steve","https://boitam.eu/users/sunny","https://mastodon.lescommuns.org/users/LesCommunsDAbord","https://fosstodon.org/users/penpot","https://mastodon.online/users/glitchtip","https://chaos.social/users/opensourcegardens","https://mamot.fr/users/neomilium","https://mastodon.art/users/eyeling","https://mamot.fr/users/cerveauxnondisponibles"]}'
  recorded_at: Mon, 24 Nov 2025 13:31:13 GMT
- request:
    method: get
    uri: https://mamot.fr/users/mtancoigne/following?page=2
    body:
      encoding: US-ASCII
      string: ''
    headers:
      Content-Type:
      - application/json
      Accept:
      - application/json
      User-Agent:
      - Faraday v2.14.0
  response:
    status:
      code: 200
      message: OK
    headers:
      date:
      - Mon, 24 Nov 2025 13:31:13 GMT
      content-type:
      - application/activity+json; charset=utf-8
      content-length:
      - '547'
      connection:
      - keep-alive
      server:
      - Mastodon
      x-frame-options:
      - DENY
      x-content-type-options:
      - nosniff
      x-xss-protection:
      - '0'
      referrer-policy:
      - same-origin
      vary:
      - Accept, Accept-Language, Cookie
      cache-control:
      - max-age=0, public
      etag:
      - W/"19a934544987d4d83297e5f185c97d7a"
      content-security-policy:
      - 'base-uri ''none''; default-src ''none''; frame-ancestors ''none''; font-src
        ''self'' https://mamot.fr; img-src ''self'' data: blob: https://mamot.fr https://static.mamot.fr;
        media-src ''self'' data: https://mamot.fr https://static.mamot.fr; manifest-src
        ''self'' https://mamot.fr; form-action ''none''; child-src ''self'' blob:
        https://mamot.fr; worker-src ''self'' blob: https://mamot.fr; connect-src
        ''self'' data: blob: https://mamot.fr https://static.mamot.fr wss://mamot.fr;
        script-src ''self'' https://mamot.fr ''wasm-unsafe-eval''; frame-src ''self''
        https:; style-src ''self'' https://mamot.fr ''nonce-ZQCJQo1EL0zHfjKmmPhDgg=='''
      x-request-id:
      - 6e238f40-5d4f-4124-93df-2a4144a87813
      x-runtime:
      - '0.010746'
      strict-transport-security:
      - max-age=63072000; includeSubDomains, max-age=15552000; preload
      x-cached:
      - MISS
      alt-svc:
      - h2="mamoteqvcadrmfs6ryykna4wpxhtsuzbpt4z7lxnqvx3qtse5xmk2fqd.onion:443"; ma=86400;
        persist=1
    body:
      encoding: UTF-8
      string: '{"@context":"https://www.w3.org/ns/activitystreams","id":"https://mamot.fr/users/mtancoigne/following?page=2","type":"OrderedCollectionPage","totalItems":19,"prev":"https://mamot.fr/users/mtancoigne/following?page=1","partOf":"https://mamot.fr/users/mtancoigne/following","orderedItems":["https://mastodon.social/users/e_mydata","https://ap.experimentslabs.com/fed/actors/1","https://mamot.fr/users/technopolice","https://mamot.fr/users/mfaure","https://mamot.fr/users/pixelhumain","https://mamot.fr/users/smortex","https://mamot.fr/users/admin"]}'
  recorded_at: Mon, 24 Nov 2025 13:31:13 GMT
recorded_with: VCR 6.3.1
